>0822                
>082C                
>0830               
>0842                
>0850                
>0866                
>0870                
>087C                
>088A                
>089C                
>08AC                
>08B4                
>08CC                
>08DC                
>08EC                
>08F2                
>0900               
>0916                
>091E                
>0930                
>0944                
>095C                
>0964                
>097C                
>0982                
>099C                
>09A6                
>09AA                
>09B0                
>09B4                
>09BE                
>09C2                
>09C6                
>09D4                
>09D8                
>09F0                
>0A04                
>0A12                
>0A1C                
>0A22                
>0A24                
>0A32                
>0A3C                
>0A40                
>0A44                
>0A48                
>0A4A                
>0A7E                
>0AA0                
>0AB0                
>0ABA                
>0AC8                
>0AF4                
>0B08                
>0B14                
>0B16                
>0B26                
>0B3C                
>0B4C                
>0B4E                
>0B6A                
>0B80                
>0B98                
>0B9C                
>0BA2                
>0BB2                
>0BEE                
>0BE0                
