(module DIN-5_180_1cm (layer F.Cu) (tedit 5EF17FD1)
  (descr "SDS-50J, standard DIN connector, 5 pins, midi")
  (tags "SDS-50J DIN 5-pins connector midi")
  (fp_text reference REF** (at 0 4.75) (layer F.SilkS)
    (effects (font (size 1 1) (thickness 0.15)))
  )
  (fp_text value DIN-5_180_1cm (at 7.49 -4.27 180) (layer F.Fab)
    (effects (font (size 1 1) (thickness 0.15)))
  )
  (fp_line (start 17.5 3.39) (end 13.54 3.39) (layer F.SilkS) (width 0.12))
  (fp_line (start 17.5 3.39) (end 17.5 -12.54) (layer F.SilkS) (width 0.12))
  (fp_line (start 17.5 -12.54) (end -2.5 -12.54) (layer F.SilkS) (width 0.12))
  (fp_line (start -2.5 3.39) (end -2.5 -12.54) (layer F.SilkS) (width 0.12))
  (fp_line (start 11.44 3.39) (end 3.57 3.39) (layer F.SilkS) (width 0.12))
  (fp_line (start 1.46 3.39) (end -2.5 3.39) (layer F.SilkS) (width 0.12))
  (fp_line (start 17.75 3.9) (end -2.75 3.9) (layer F.CrtYd) (width 0.05))
  (fp_line (start -2.75 -12.8) (end -2.75 3.9) (layer F.CrtYd) (width 0.05))
  (fp_line (start 17.75 -12.8) (end -2.75 -12.8) (layer F.CrtYd) (width 0.05))
  (fp_line (start 17.75 3.9) (end 17.75 -12.8) (layer F.CrtYd) (width 0.05))
  (pad "" np_thru_hole circle (at 12.54 -10) (size 2 2) (drill 1.3) (layers *.Cu *.Mask))
  (pad 4 thru_hole circle (at 2.5 2.5) (size 2.3 2.3) (drill 1.3) (layers *.Cu *.Mask))
  (pad 1 thru_hole circle (at 0 0) (size 2.3 2.3) (drill 1.3) (layers *.Cu *.Mask))
  (pad 2 thru_hole circle (at 7.5 0) (size 2.3 2.3) (drill 1.3) (layers *.Cu *.Mask))
  (pad 3 thru_hole circle (at 15 0) (size 2.3 2.3) (drill 1.3) (layers *.Cu *.Mask))
  (pad "" np_thru_hole circle (at 2.46 -10) (size 2 2) (drill 1.3) (layers *.Cu *.Mask))
  (pad 5 thru_hole circle (at 12.5 2.5) (size 2.3 2.3) (drill 1.3) (layers *.Cu *.Mask))
  (model ${KISYS3DMOD}/Connectors.3dshapes/SDS-50J.wrl
    (offset (xyz 7.365999889373779 12.44599981307983 0))
    (scale (xyz 0.39 0.39 0.39))
    (rotate (xyz -90 0 180))
  )
)
