(module DIP-64_750_ELL (layer F.Cu) (tedit 5E60580E)
  (fp_text reference REF** (at -29.509 0 90) (layer F.SilkS)
    (effects (font (size 1 1) (thickness 0.15)))
  )
  (fp_text value DIP-64_750_ELL (at 0 0) (layer F.Fab)
    (effects (font (size 1 1) (thickness 0.15)))
  )
  (fp_line (start -28.509 11.024999) (end 28.509 11.025) (layer F.SilkS) (width 0.12))
  (fp_line (start 28.509 11.025) (end 28.509 -11.024999) (layer F.SilkS) (width 0.12))
  (fp_line (start 28.509 -11.024999) (end -28.509 -11.025) (layer F.SilkS) (width 0.12))
  (fp_line (start -28.509 -11.025) (end -28.509 -3.675) (layer F.SilkS) (width 0.12))
  (fp_line (start -28.509 -3.675) (end -28.149 -3.675) (layer F.SilkS) (width 0.12))
  (fp_line (start -28.149 -3.675) (end -28.149 3.674999) (layer F.SilkS) (width 0.12))
  (fp_line (start -28.149 3.674999) (end -28.509 3.674999) (layer F.SilkS) (width 0.12))
  (fp_line (start -28.509 3.674999) (end -28.509 11.024999) (layer F.SilkS) (width 0.12))
  (fp_line (start -28.26 -10.78) (end 28.26 -10.78) (layer F.CrtYd) (width 0.05))
  (fp_line (start 28.26 -10.78) (end 28.26 10.78) (layer F.CrtYd) (width 0.05))
  (fp_line (start 28.26 10.78) (end -28.26 10.78) (layer F.CrtYd) (width 0.05))
  (fp_line (start -28.26 10.78) (end -28.26 -10.78) (layer F.CrtYd) (width 0.05))
  (pad 64 thru_hole oval (at -27.559 -9.525) (size 0.9 2) (drill 0.635) (layers *.Cu *.Mask))
  (pad 1 thru_hole oval (at -27.559 9.525) (size 0.9 2) (drill 0.5) (layers *.Cu *.Mask))
  (pad 63 thru_hole oval (at -25.781 -9.525) (size 0.9 2) (drill 0.5) (layers *.Cu *.Mask))
  (pad 2 thru_hole oval (at -25.781 9.525) (size 0.9 2) (drill 0.5) (layers *.Cu *.Mask))
  (pad 62 thru_hole oval (at -24.003 -9.525) (size 0.9 2) (drill 0.5) (layers *.Cu *.Mask))
  (pad 3 thru_hole oval (at -24.003 9.525) (size 0.9 2) (drill 0.5) (layers *.Cu *.Mask))
  (pad 61 thru_hole oval (at -22.225 -9.525) (size 0.9 2) (drill 0.5) (layers *.Cu *.Mask))
  (pad 4 thru_hole oval (at -22.225 9.525) (size 0.9 2) (drill 0.5) (layers *.Cu *.Mask))
  (pad 60 thru_hole oval (at -20.447 -9.525) (size 0.9 2) (drill 0.5) (layers *.Cu *.Mask))
  (pad 5 thru_hole oval (at -20.447 9.525) (size 0.9 2) (drill 0.5) (layers *.Cu *.Mask))
  (pad 59 thru_hole oval (at -18.669 -9.525) (size 0.9 2) (drill 0.5) (layers *.Cu *.Mask))
  (pad 6 thru_hole oval (at -18.669 9.525) (size 0.9 2) (drill 0.5) (layers *.Cu *.Mask))
  (pad 58 thru_hole oval (at -16.891 -9.525) (size 0.9 2) (drill 0.5) (layers *.Cu *.Mask))
  (pad 7 thru_hole oval (at -16.891 9.525) (size 0.9 2) (drill 0.5) (layers *.Cu *.Mask))
  (pad 57 thru_hole oval (at -15.113 -9.525) (size 0.9 2) (drill 0.5) (layers *.Cu *.Mask))
  (pad 8 thru_hole oval (at -15.113 9.525) (size 0.9 2) (drill 0.5) (layers *.Cu *.Mask))
  (pad 56 thru_hole oval (at -13.335 -9.525) (size 0.9 2) (drill 0.5) (layers *.Cu *.Mask))
  (pad 9 thru_hole oval (at -13.335 9.525) (size 0.9 2) (drill 0.5) (layers *.Cu *.Mask))
  (pad 55 thru_hole oval (at -11.557 -9.525) (size 0.9 2) (drill 0.5) (layers *.Cu *.Mask))
  (pad 10 thru_hole oval (at -11.557 9.525) (size 0.9 2) (drill 0.5) (layers *.Cu *.Mask))
  (pad 54 thru_hole oval (at -9.779 -9.525) (size 0.9 2) (drill 0.5) (layers *.Cu *.Mask))
  (pad 11 thru_hole oval (at -9.779 9.525) (size 0.9 2) (drill 0.5) (layers *.Cu *.Mask))
  (pad 53 thru_hole oval (at -8.001 -9.525) (size 0.9 2) (drill 0.5) (layers *.Cu *.Mask))
  (pad 12 thru_hole oval (at -8.001 9.525) (size 0.9 2) (drill 0.5) (layers *.Cu *.Mask))
  (pad 52 thru_hole oval (at -6.223 -9.525) (size 0.9 2) (drill 0.5) (layers *.Cu *.Mask))
  (pad 13 thru_hole oval (at -6.223 9.525) (size 0.9 2) (drill 0.5) (layers *.Cu *.Mask))
  (pad 51 thru_hole oval (at -4.445 -9.525) (size 0.9 2) (drill 0.5) (layers *.Cu *.Mask))
  (pad 14 thru_hole oval (at -4.445 9.525) (size 0.9 2) (drill 0.5) (layers *.Cu *.Mask))
  (pad 50 thru_hole oval (at -2.667 -9.525) (size 0.9 2) (drill 0.5) (layers *.Cu *.Mask))
  (pad 15 thru_hole oval (at -2.667 9.525) (size 0.9 2) (drill 0.5) (layers *.Cu *.Mask))
  (pad 49 thru_hole oval (at -0.889 -9.525) (size 0.9 2) (drill 0.5) (layers *.Cu *.Mask))
  (pad 16 thru_hole oval (at -0.889 9.525) (size 0.9 2) (drill 0.5) (layers *.Cu *.Mask))
  (pad 48 thru_hole oval (at 0.889 -9.525) (size 0.9 2) (drill 0.5) (layers *.Cu *.Mask))
  (pad 17 thru_hole oval (at 0.889 9.525) (size 0.9 2) (drill 0.5) (layers *.Cu *.Mask))
  (pad 47 thru_hole oval (at 2.667 -9.525) (size 0.9 2) (drill 0.5) (layers *.Cu *.Mask))
  (pad 18 thru_hole oval (at 2.667 9.525) (size 0.9 2) (drill 0.5) (layers *.Cu *.Mask))
  (pad 46 thru_hole oval (at 4.445 -9.525) (size 0.9 2) (drill 0.5) (layers *.Cu *.Mask))
  (pad 19 thru_hole oval (at 4.445 9.525) (size 0.9 2) (drill 0.5) (layers *.Cu *.Mask))
  (pad 45 thru_hole oval (at 6.223 -9.525) (size 0.9 2) (drill 0.5) (layers *.Cu *.Mask))
  (pad 20 thru_hole oval (at 6.223 9.525) (size 0.9 2) (drill 0.5) (layers *.Cu *.Mask))
  (pad 44 thru_hole oval (at 8.001 -9.525) (size 0.9 2) (drill 0.5) (layers *.Cu *.Mask))
  (pad 21 thru_hole oval (at 8.001 9.525) (size 0.9 2) (drill 0.5) (layers *.Cu *.Mask))
  (pad 43 thru_hole oval (at 9.779 -9.525) (size 0.9 2) (drill 0.5) (layers *.Cu *.Mask))
  (pad 22 thru_hole oval (at 9.779 9.525) (size 0.9 2) (drill 0.5) (layers *.Cu *.Mask))
  (pad 42 thru_hole oval (at 11.557 -9.525) (size 0.9 2) (drill 0.5) (layers *.Cu *.Mask))
  (pad 23 thru_hole oval (at 11.557 9.525) (size 0.9 2) (drill 0.5) (layers *.Cu *.Mask))
  (pad 41 thru_hole oval (at 13.335 -9.525) (size 0.9 2) (drill 0.5) (layers *.Cu *.Mask))
  (pad 24 thru_hole oval (at 13.335 9.525) (size 0.9 2) (drill 0.5) (layers *.Cu *.Mask))
  (pad 40 thru_hole oval (at 15.113 -9.525) (size 0.9 2) (drill 0.5) (layers *.Cu *.Mask))
  (pad 25 thru_hole oval (at 15.113 9.525) (size 0.9 2) (drill 0.5) (layers *.Cu *.Mask))
  (pad 39 thru_hole oval (at 16.891 -9.525) (size 0.9 2) (drill 0.5) (layers *.Cu *.Mask))
  (pad 26 thru_hole oval (at 16.891 9.525) (size 0.9 2) (drill 0.5) (layers *.Cu *.Mask))
  (pad 38 thru_hole oval (at 18.669 -9.525) (size 0.9 2) (drill 0.5) (layers *.Cu *.Mask))
  (pad 27 thru_hole oval (at 18.669 9.525) (size 0.9 2) (drill 0.5) (layers *.Cu *.Mask))
  (pad 37 thru_hole oval (at 20.447 -9.525) (size 0.9 2) (drill 0.5) (layers *.Cu *.Mask))
  (pad 28 thru_hole oval (at 20.447 9.525) (size 0.9 2) (drill 0.5) (layers *.Cu *.Mask))
  (pad 36 thru_hole oval (at 22.225 -9.525) (size 0.9 2) (drill 0.5) (layers *.Cu *.Mask))
  (pad 29 thru_hole oval (at 22.225 9.525) (size 0.9 2) (drill 0.5) (layers *.Cu *.Mask))
  (pad 35 thru_hole oval (at 24.003 -9.525) (size 0.9 2) (drill 0.5) (layers *.Cu *.Mask))
  (pad 30 thru_hole oval (at 24.003 9.525) (size 0.9 2) (drill 0.5) (layers *.Cu *.Mask))
  (pad 34 thru_hole oval (at 25.781 -9.525) (size 0.9 2) (drill 0.5) (layers *.Cu *.Mask))
  (pad 31 thru_hole oval (at 25.781 9.525) (size 0.9 2) (drill 0.5) (layers *.Cu *.Mask))
  (pad 33 thru_hole oval (at 27.559 -9.525) (size 0.9 2) (drill 0.5) (layers *.Cu *.Mask))
  (pad 32 thru_hole oval (at 27.559 9.525) (size 0.9 2) (drill 0.5) (layers *.Cu *.Mask))
)
