(module Pin_Header_3x05_Pitch2.54mm (layer F.Cu) (tedit 5DD77E04)
  (descr "Through hole straight pin header, 2x05, 2.54mm pitch, double rows")
  (tags "Through hole pin header THT 2x05 2.54mm double row")
  (fp_text reference REF** (at 1.27 -2.33) (layer F.SilkS)
    (effects (font (size 1 1) (thickness 0.15)))
  )
  (fp_text value Pin_Header_3x05_Pitch2.54mm (at 1.27 13.208) (layer F.Fab)
    (effects (font (size 1 1) (thickness 0.15)))
  )
  (fp_text user %R (at 1.27 5.08 90) (layer F.Fab)
    (effects (font (size 1 1) (thickness 0.15)))
  )
  (fp_line (start 6.89 -1.8) (end -1.8 -1.8) (layer F.CrtYd) (width 0.05))
  (fp_line (start 6.89 11.95) (end 6.89 -1.8) (layer F.CrtYd) (width 0.05))
  (fp_line (start -1.8 11.95) (end 6.89 11.95) (layer F.CrtYd) (width 0.05))
  (fp_line (start -1.8 -1.8) (end -1.8 11.95) (layer F.CrtYd) (width 0.05))
  (fp_line (start -1.33 -1.33) (end 0 -1.33) (layer F.SilkS) (width 0.12))
  (fp_line (start -1.33 0) (end -1.33 -1.33) (layer F.SilkS) (width 0.12))
  (fp_line (start 1.27 -1.33) (end 6.41 -1.33) (layer F.SilkS) (width 0.12))
  (fp_line (start 1.27 1.27) (end 1.27 -1.33) (layer F.SilkS) (width 0.12))
  (fp_line (start -1.33 1.27) (end 1.27 1.27) (layer F.SilkS) (width 0.12))
  (fp_line (start 6.41 -1.33) (end 6.41 11.49) (layer F.SilkS) (width 0.12))
  (fp_line (start -1.33 1.27) (end -1.33 11.49) (layer F.SilkS) (width 0.12))
  (fp_line (start -1.33 11.49) (end 6.41 11.49) (layer F.SilkS) (width 0.12))
  (fp_line (start -1.27 0) (end 0 -1.27) (layer F.Fab) (width 0.1))
  (fp_line (start -1.27 11.43) (end -1.27 0) (layer F.Fab) (width 0.1))
  (fp_line (start 6.35 11.43) (end -1.27 11.43) (layer F.Fab) (width 0.1))
  (fp_line (start 6.35 -1.27) (end 6.35 11.43) (layer F.Fab) (width 0.1))
  (fp_line (start 0 -1.27) (end 6.35 -1.27) (layer F.Fab) (width 0.1))
  (pad 14 thru_hole oval (at 5.08 7.62) (size 1.7 1.7) (drill 1) (layers *.Cu *.Mask))
  (pad 13 thru_hole oval (at 5.08 5.08) (size 1.7 1.7) (drill 1) (layers *.Cu *.Mask))
  (pad 11 thru_hole oval (at 5.08 0) (size 1.7 1.7) (drill 1) (layers *.Cu *.Mask))
  (pad 10 thru_hole oval (at 2.54 10.16) (size 1.7 1.7) (drill 1) (layers *.Cu *.Mask))
  (pad 8 thru_hole oval (at 2.54 5.08) (size 1.7 1.7) (drill 1) (layers *.Cu *.Mask))
  (pad 7 thru_hole oval (at 2.54 2.54) (size 1.7 1.7) (drill 1) (layers *.Cu *.Mask))
  (pad 6 thru_hole oval (at 2.54 0) (size 1.7 1.7) (drill 1) (layers *.Cu *.Mask))
  (pad 4 thru_hole oval (at 0 7.62) (size 1.7 1.7) (drill 1) (layers *.Cu *.Mask))
  (pad 2 thru_hole oval (at 0 2.54) (size 1.7 1.7) (drill 1) (layers *.Cu *.Mask))
  (pad 1 thru_hole rect (at 0 0) (size 1.7 1.7) (drill 1) (layers *.Cu *.Mask))
  (pad 5 thru_hole oval (at 0 10.16) (size 1.7 1.7) (drill 1) (layers *.Cu *.Mask))
  (pad 3 thru_hole oval (at 0 5.08) (size 1.7 1.7) (drill 1) (layers *.Cu *.Mask))
  (pad 9 thru_hole oval (at 2.54 7.62) (size 1.7 1.7) (drill 1) (layers *.Cu *.Mask))
  (pad 12 thru_hole oval (at 5.08 2.54) (size 1.7 1.7) (drill 1) (layers *.Cu *.Mask))
  (pad 15 thru_hole oval (at 5.08 10.16) (size 1.7 1.7) (drill 1) (layers *.Cu *.Mask))
  (model ${KISYS3DMOD}/Pin_Headers.3dshapes/Pin_Header_Straight_2x05_Pitch2.54mm.wrl
    (offset (xyz 1.5 -5 0))
    (scale (xyz 1 1 1))
    (rotate (xyz 0 0 90))
  )
  (model ${KISYS3DMOD}/Pin_Headers.3dshapes/Pin_Header_Straight_1x05_Pitch2.54mm.wrl
    (offset (xyz 5 -5 0))
    (scale (xyz 1 1 1))
    (rotate (xyz 0 0 90))
  )
)
