(module SOT-23-5 (layer F.Cu) (tedit 0)
  (descr "5 SOT23-5  21-0057")
  (tags "Integrated Circuit")
  (attr smd)
  (fp_text reference IC** (at 0 0) (layer F.SilkS)
    (effects (font (size 1.27 1.27) (thickness 0.254)))
  )
  (fp_text value SOT-23-5 (at 0 0) (layer F.SilkS) hide
    (effects (font (size 1.27 1.27) (thickness 0.254)))
  )
  (fp_text user %R (at 0 0) (layer F.Fab)
    (effects (font (size 1.27 1.27) (thickness 0.254)))
  )
  (fp_line (start -2.125 -1.75) (end 2.125 -1.75) (layer F.CrtYd) (width 0.05))
  (fp_line (start 2.125 -1.75) (end 2.125 1.75) (layer F.CrtYd) (width 0.05))
  (fp_line (start 2.125 1.75) (end -2.125 1.75) (layer F.CrtYd) (width 0.05))
  (fp_line (start -2.125 1.75) (end -2.125 -1.75) (layer F.CrtYd) (width 0.05))
  (fp_line (start -0.812 -1.45) (end 0.812 -1.45) (layer F.Fab) (width 0.1))
  (fp_line (start 0.812 -1.45) (end 0.812 1.45) (layer F.Fab) (width 0.1))
  (fp_line (start 0.812 1.45) (end -0.812 1.45) (layer F.Fab) (width 0.1))
  (fp_line (start -0.812 1.45) (end -0.812 -1.45) (layer F.Fab) (width 0.1))
  (fp_line (start -0.812 -0.5) (end 0.138 -1.45) (layer F.Fab) (width 0.1))
  (fp_line (start -0.275 -1.45) (end 0.275 -1.45) (layer F.SilkS) (width 0.2))
  (fp_line (start 0.275 -1.45) (end 0.275 1.45) (layer F.SilkS) (width 0.2))
  (fp_line (start 0.275 1.45) (end -0.275 1.45) (layer F.SilkS) (width 0.2))
  (fp_line (start -0.275 1.45) (end -0.275 -1.45) (layer F.SilkS) (width 0.2))
  (fp_line (start -1.875 -1.5) (end -0.625 -1.5) (layer F.SilkS) (width 0.2))
  (pad 1 smd rect (at -1.25 -0.95 90) (size 0.6 1.25) (layers F.Cu F.Paste F.Mask))
  (pad 2 smd rect (at -1.25 0 90) (size 0.6 1.25) (layers F.Cu F.Paste F.Mask))
  (pad 3 smd rect (at -1.25 0.95 90) (size 0.6 1.25) (layers F.Cu F.Paste F.Mask))
  (pad 4 smd rect (at 1.25 0.95 90) (size 0.6 1.25) (layers F.Cu F.Paste F.Mask))
  (pad 5 smd rect (at 1.25 -0.95 90) (size 0.6 1.25) (layers F.Cu F.Paste F.Mask))
  (model "C:\\Users\\Erik\\Documents\\KiCAD projects\\Mouser\\SamacSys_Parts.3dshapes\\MAX1682EUK+T.stp"
    (at (xyz 0 0 0))
    (scale (xyz 1 1 1))
    (rotate (xyz 0 0 0))
  )
)
